Provide the Coronavirus Data in Australia • AustraliaCOVID19
…
Installation

You can install the AustraliaCOVID19 from GitHub with:

# install.packages("devtools")
devtools::install_github("etc5523-2020/r-package-assessment-yliu0320")

Example

This is a basic example which shows you how to solve a common problem:

library(AustraliaCOVID19)
library(tibble)
coronavirus_region
#> # A tibble: 2,120 x 9
#>    Country State date       confirmed recovered deaths daily_confirmed
#>    <chr>   <chr> <date>         <dbl>     <dbl>  <dbl>           <dbl>
#>  1 Austra~ Sout~ 2020-01-12         0         0      0               0
#>  2 Austra~ Sout~ 2020-01-13         0         0      0               0
#>  3 Austra~ Sout~ 2020-01-14         0         0      0               0
#>  4 Austra~ Sout~ 2020-01-15         0         0      0               0
#>  5 Austra~ Sout~ 2020-01-16         0         0      0               0
#>  6 Austra~ Sout~ 2020-01-17         0         0      0               0
#>  7 Austra~ Sout~ 2020-01-18         0         0      0               0
#>  8 Austra~ Sout~ 2020-01-19         0         0      0               0
#>  9 Austra~ Sout~ 2020-01-20         0         0      0               0
#> 10 Austra~ Sout~ 2020-01-21         0         0      0               0
#> # ... with 2,110 more rows, and 2 more variables: daily_recovered <dbl>,
#> #   daily_deaths <dbl>
…
