…
``` r
# install.packages("devtools")
devtools::install_github("etc5523-2020/r-package-assessment-yliu0320")
```

## Example

This is a basic example which shows you how to solve a common problem:

``` r
library(AustraliaCOVID19)
library(tibble)
coronavirus_region
#> # A tibble: 2,120 x 8
#>    Country   State        date     confirmed recovered deaths latitude longitude
#>    <chr>     <chr>        <chr>        <dbl>     <dbl>  <dbl>    <dbl>     <dbl>
#>  1 Australia South Austr~ 2020-01~         0         0      0    -34.9      139.
#>  2 Australia South Austr~ 2020-01~         0         0      0    -34.9      139.
#>  3 Australia South Austr~ 2020-01~         0         0      0    -34.9      139.
#>  4 Australia South Austr~ 2020-01~         0         0      0    -34.9      139.
#>  5 Australia South Austr~ 2020-01~         0         0      0    -34.9      139.
#>  6 Australia South Austr~ 2020-01~         0         0      0    -34.9      139.
#>  7 Australia South Austr~ 2020-01~         0         0      0    -34.9      139.
#>  8 Australia South Austr~ 2020-01~         0         0      0    -34.9      139.
#>  9 Australia South Austr~ 2020-01~         0         0      0    -34.9      139.
#> 10 Australia South Austr~ 2020-01~         0         0      0    -34.9      139.
#> # ... with 2,110 more rows
```
